<svg width="412" height="552" viewBox="0 0 412 552" fill="none" xmlns="http://www.w3.org/2000/svg">
<g clip-path="url(#clip0)">
<path d="M246.583 39.7866L251.271 42.8213L250.181 44.5007L243.481 40.1574L249.827 30.3689L251.84 31.6775L246.583 39.7866Z" fill="#FAA61A"/>
<path d="M259.951 46.2847C258.358 48.547 256.009 49.0271 253.863 47.5185C251.689 45.9942 251.36 43.6547 252.998 41.3198C254.622 39.0026 256.943 38.5068 259.11 40.0194C261.317 41.5809 261.632 43.887 259.951 46.2847ZM254.83 42.613C253.878 43.9629 253.908 45.3455 254.901 46.043C255.886 46.7287 257.206 46.2983 258.132 44.9739C259.102 43.5867 259.088 42.2276 258.077 41.5164C257.084 40.8189 255.773 41.2611 254.83 42.613Z" fill="#FAA61A"/>
<path d="M265.626 44.9276L264.611 46.2855C265.699 45.6356 266.821 45.6348 267.635 46.2559C267.688 46.2971 267.751 46.3402 267.845 46.4303L266.483 48.2493C266.271 48.0337 266.152 47.9181 265.955 47.777C264.91 46.9873 263.986 47.1194 263.196 48.1652L260.445 51.8384L258.654 50.4923L263.834 43.5815L265.626 44.9276Z" fill="#FAA61A"/>
<path d="M271.832 55.6882C271.764 55.7765 271.711 55.8374 271.582 55.9747L267.061 52.3614C266.373 53.3052 265.866 54.3155 267.045 55.2541C267.677 55.7675 268.416 55.8435 269.061 55.4724L270.786 56.846C269.339 57.8629 267.425 57.7465 265.912 56.5375C264.005 55.0052 263.884 52.748 265.61 50.5836C267.417 48.3231 269.719 47.8744 271.663 49.4244C273.01 50.4982 274.223 52.6978 271.832 55.6882ZM270.566 50.7352C269.793 50.1121 268.944 50.2793 268.013 51.2154L270.695 53.3611C271.412 52.3212 271.375 51.3857 270.566 50.7352Z" fill="#FAA61A"/>
<path d="M277.588 54.439L276.876 55.2455C278.014 55.0643 278.714 55.2344 279.46 55.8929C280.266 56.6042 280.614 57.5199 280.385 58.4123C281.481 58.1821 282.315 58.3993 283.131 59.1126C284.434 60.2492 284.547 61.6788 283.44 62.9366L279.413 67.5383L277.729 66.0607L281.529 61.7299C281.979 61.2079 281.92 60.5843 281.357 60.0846C280.637 59.4516 279.78 59.5561 279.082 60.345L275.664 64.2422L273.981 62.7646L277.781 58.4337C278.231 57.9118 278.172 57.2881 277.609 56.7884C276.889 56.1555 276.032 56.26 275.334 57.0489L271.916 60.946L270.233 59.4685L275.933 52.9673L277.588 54.439Z" fill="#FAA61A"/>
<path d="M292.377 66.645L290.772 65.0811L292.167 63.6564L293.773 65.2203L292.377 66.645ZM285.618 73.547L284.013 71.9831L290.055 65.8151L291.66 67.379L285.618 73.547Z" fill="#FAA61A"/>
<path d="M295.789 77.9704C293.896 79.7955 291.431 80.0384 289.985 78.547C289.233 77.765 289.019 76.8963 289.33 75.8469L286.084 78.9831L284.53 77.3681L293.263 68.9527L294.818 70.5677L293.896 71.4547C294.961 71.1775 295.832 71.4122 296.584 72.1942C298.142 73.7895 297.62 76.2041 295.789 77.9704ZM291.617 73.6312C290.455 74.7557 290.205 76.062 290.982 76.8695C291.751 77.6652 293.087 77.4623 294.212 76.3711C295.397 75.2309 295.669 73.9187 294.884 73.0995C294.105 72.3018 292.777 72.5165 291.617 73.6312Z" fill="#FAA61A"/>
<path d="M296.911 83.3942C297.604 84.1645 298.257 84.417 298.653 84.0677C298.914 83.8341 298.915 83.5694 298.674 83.042L297.509 80.4952C297.297 80.0247 296.573 78.7995 297.837 77.6749C299.154 76.4894 300.894 76.7648 302.352 78.4013C303.904 80.1281 304.017 81.9146 302.679 83.1569L301.234 81.5537C301.81 81.0159 301.745 80.3708 301.027 79.575C300.501 78.9909 299.922 78.8246 299.564 79.1406C299.303 79.3742 299.313 79.5801 299.582 80.1742L300.868 82.8267C301.379 83.8972 301.211 84.7916 300.378 85.5433C299.484 86.344 297.694 86.9356 295.674 84.6875C293.922 82.7373 293.73 81.0371 295.093 79.7281L296.553 81.3549C296.214 81.8277 295.977 82.3515 296.911 83.3942Z" fill="#FAA61A"/>
<path d="M302.767 92.3312L303.551 91.6717C302.404 91.7999 301.572 91.471 300.823 90.5772C299.647 89.1601 299.805 87.6519 301.271 86.435L305.893 82.584L307.323 84.3069L303.056 87.8615C302.261 88.5288 302.173 89.2251 302.791 89.9601C303.492 90.7931 304.467 90.916 305.249 90.2663L309.406 86.802L310.837 88.5249L304.198 94.054L302.767 92.3312Z" fill="#FAA61A"/>
<path d="M313.681 92.1099L312.828 92.7557C313.97 92.8099 314.631 93.1252 315.228 93.9171C315.873 94.7697 316.027 95.7384 315.628 96.5663C316.749 96.5656 317.52 96.9435 318.174 97.808C319.214 99.1879 319.045 100.602 317.702 101.609L312.829 105.288L311.482 103.5L316.079 100.031C316.63 99.6211 316.696 98.9817 316.245 98.3819C315.664 97.6136 314.81 97.5455 313.969 98.1834L309.83 101.305L308.483 99.5168L313.08 96.0483C313.63 95.6381 313.697 94.9987 313.243 94.4087C312.662 93.6403 311.809 93.5723 310.968 94.2102L306.828 97.3313L305.482 95.5436L312.372 90.3399L313.681 92.1099Z" fill="#FAA61A"/>
<path d="M319.608 107.75C321.79 106.319 324.307 106.535 325.441 108.26C326.028 109.152 326.113 110.005 325.692 110.941L329.154 108.663L330.381 110.539L320.631 116.947L319.404 115.071L320.143 114.586C319.123 114.587 318.379 114.174 317.792 113.282C316.593 111.473 317.495 109.144 319.608 107.75ZM320.835 109.626C319.51 110.494 319.007 111.74 319.625 112.679C320.244 113.618 321.572 113.658 322.885 112.798C324.259 111.889 324.77 110.655 324.154 109.706C323.533 108.777 322.172 108.751 320.835 109.626Z" fill="#FAA61A"/>
<path d="M329.191 123.058C326.825 124.494 324.479 123.985 323.122 121.737C321.75 119.465 322.398 117.187 324.832 115.715C327.255 114.25 329.586 114.735 330.95 116.995C332.346 119.303 331.695 121.548 329.191 123.058ZM325.991 117.628C324.577 118.478 324.047 119.759 324.675 120.802C325.297 121.823 326.688 121.958 328.068 121.121C329.517 120.248 330.053 118.988 329.417 117.934C328.777 116.899 327.404 116.778 325.991 117.628Z" fill="#FAA61A"/>
<path d="M327.322 128.192L326.211 126.247L336.352 120.488L337.463 122.433L327.322 128.192Z" fill="#FAA61A"/>
<path d="M335.661 134.901C333.221 136.199 330.898 135.573 329.667 133.258C328.42 130.919 329.183 128.675 331.695 127.33C334.194 125.993 336.489 126.603 337.738 128.932C339.016 131.318 338.251 133.521 335.661 134.901ZM332.749 129.304C331.3 130.076 330.693 131.331 331.265 132.404C331.828 133.464 333.205 133.667 334.63 132.911C336.126 132.108 336.725 130.892 336.148 129.798C335.577 128.726 334.21 128.525 332.749 129.304Z" fill="#FAA61A"/>
<path d="M341.334 136.266L339.818 137.015C341.079 136.929 342.08 137.435 342.53 138.35C342.559 138.407 342.596 138.476 342.632 138.605L340.597 139.607C340.503 139.313 340.451 139.16 340.341 138.944C339.76 137.768 338.881 137.47 337.705 138.052L333.588 140.086L332.592 138.073L340.34 134.243L341.334 136.266Z" fill="#FAA61A"/>
<path d="M339.79 150.152C340.203 151.101 340.746 151.546 341.236 151.338C341.56 151.198 341.64 150.949 341.583 150.367L341.281 147.584C341.231 147.065 340.927 145.678 342.477 145.008C344.107 144.303 345.66 145.102 346.534 147.112C347.456 149.243 347.01 150.969 345.349 151.729L344.489 149.753C345.197 149.425 345.343 148.792 344.917 147.809C344.601 147.094 344.108 146.751 343.663 146.937C343.34 147.077 343.289 147.281 343.364 147.928L343.75 150.85C343.894 152.021 343.459 152.821 342.432 153.269C341.326 153.752 339.451 153.746 338.239 150.975C337.189 148.574 337.542 146.9 339.254 146.089L340.128 148.099C339.63 148.448 339.232 148.858 339.79 150.152Z" fill="#FAA61A"/>
<path d="M350.322 153.893L349.481 151.819L351.334 151.066L352.175 153.141L350.322 153.893ZM341.37 157.523L340.529 155.449L348.538 152.202L349.379 154.276L341.37 157.523Z" fill="#FAA61A"/>
<path d="M349.864 160.134L349.412 158.973L345.028 160.659C344.31 160.934 344.198 161.136 344.415 161.689C344.475 161.844 344.534 161.957 344.638 162.151L343.17 162.715C342.909 162.388 342.714 162.033 342.542 161.57C342.009 160.2 342.385 159.286 343.656 158.795L348.614 156.887L348.217 155.859L349.607 155.331L350.004 156.358L352.169 155.525L352.976 157.613L350.812 158.446L351.263 159.607L349.864 160.134Z" fill="#FAA61A"/>
<path d="M347.299 166.913C348.774 166.422 349.864 166.935 350.681 168.464L351.113 169.264C351.451 169.923 351.834 170.917 352.632 170.648C353.179 170.461 353.318 169.969 353.043 169.149C352.691 168.1 352.305 167.839 351.422 168.02L350.74 165.968C352.685 165.468 354.006 166.313 354.747 168.53C355.488 170.748 355.01 172.172 353.339 172.726L348.785 174.245C348.359 174.385 348.169 174.571 347.948 175.067L347.687 175.148L346.923 172.844C347.101 172.563 347.232 172.467 347.658 172.328C346.634 171.838 345.968 171.135 345.66 170.227C345.172 168.733 345.825 167.405 347.299 166.913ZM350.709 171.294C350.504 171.09 350.45 171.008 350.157 170.481L349.784 169.794C349.305 168.975 348.893 168.74 348.259 168.95C347.648 169.155 347.423 169.722 347.658 170.431C348.014 171.512 348.918 171.886 350.142 171.477L350.709 171.294Z" fill="#FAA61A"/>
<path d="M356.991 176.044L355.964 176.339C357.012 176.812 357.51 177.33 357.777 178.291C358.072 179.318 357.861 180.275 357.185 180.905C358.227 181.307 358.804 181.942 359.104 182.991C359.568 184.653 358.9 185.907 357.281 186.359L351.402 188.022L350.793 185.862L356.334 184.305C356.993 184.12 357.289 183.557 357.086 182.833C356.823 181.904 356.052 181.526 355.036 181.813L350.046 183.214L349.435 181.064L354.978 179.497C355.637 179.312 355.932 178.749 355.73 178.025C355.466 177.096 354.695 176.718 353.68 177.005L348.689 178.407L348.08 176.246L356.398 173.906L356.991 176.044Z" fill="#FAA61A"/>
<path d="M357.356 196.112C357.248 196.142 357.174 196.157 356.976 196.179L355.664 190.534C354.54 190.85 353.517 191.329 353.857 192.794C354.046 193.586 354.574 194.11 355.307 194.215L355.807 196.364C354.042 196.267 352.615 194.984 352.175 193.101C351.62 190.717 352.937 188.869 355.631 188.243C358.452 187.592 360.544 188.661 361.102 191.077C361.49 192.765 361.088 195.245 357.356 196.112ZM359.428 191.447C359.202 190.484 358.435 190.087 357.129 190.244L357.909 193.592C359.117 193.21 359.664 192.463 359.428 191.447Z" fill="#FAA61A"/>
<path d="M361.309 200.683L361.063 199.461L356.451 200.398C355.696 200.553 355.559 200.73 355.669 201.302C355.699 201.461 355.746 201.583 355.817 201.791L354.275 202.105C354.073 201.739 353.945 201.357 353.849 200.868C353.556 199.423 354.069 198.587 355.408 198.314L360.614 197.261L360.402 196.179L361.859 195.878L362.081 196.962L364.356 196.498L364.804 198.698L362.53 199.162L362.776 200.384L361.309 200.683Z" fill="#FAA61A"/>
<path d="M357.472 205.455L355.313 205.851C354.086 206.075 352.662 206.107 351.998 204.017L352.886 203.858C353.247 204.756 353.877 205.075 354.946 204.88L354.989 204.868L354.739 203.513L357.035 203.094L357.472 205.455Z" fill="#FAA61A"/>
<path d="M360.57 213.343C358.904 213.571 357.986 214.388 358.138 215.519C358.252 216.378 358.747 216.762 359.892 216.899L360.182 219.026C358.107 219.102 356.628 217.828 356.348 215.754C356.007 213.218 357.447 211.517 360.267 211.131C363.181 210.732 365.07 211.996 365.419 214.543C365.707 216.681 364.651 218.245 362.574 218.687L362.285 216.56C363.375 216.155 363.747 215.668 363.621 214.766C363.416 213.237 361.755 213.181 360.57 213.343Z" fill="#FAA61A"/>
<path d="M362.283 228.438C359.528 228.705 357.638 227.237 357.383 224.627C357.125 221.986 358.683 220.206 361.52 219.935C364.338 219.661 366.234 221.099 366.486 223.719C366.745 226.412 365.195 228.152 362.283 228.438ZM361.739 222.161C360.096 222.323 359.067 223.24 359.182 224.455C359.3 225.652 360.493 226.369 362.105 226.211C363.789 226.047 364.817 225.14 364.694 223.912C364.568 222.704 363.371 222.007 361.739 222.161Z" fill="#FAA61A"/>
<path d="M367.004 231.663L365.755 231.741C366.749 232.326 367.232 233.075 367.296 234.24C367.409 236.078 366.38 237.198 364.482 237.309L358.702 237.656L358.567 235.417L363.882 235.099C364.904 235.038 365.403 234.526 365.35 233.567C365.28 232.482 364.57 231.8 363.548 231.862L358.377 232.177L358.242 229.938L366.859 229.422L367.004 231.663Z" fill="#FAA61A"/>
<path d="M360.241 242.725C360.268 243.77 360.605 244.378 361.127 244.37C361.476 244.358 361.646 244.167 361.811 243.599L362.582 240.907C362.732 240.407 362.971 239.007 364.661 238.966C366.434 238.922 367.574 240.261 367.627 242.453C367.685 244.769 366.614 246.208 364.784 246.281L364.735 244.12C365.518 244.082 365.89 243.545 365.868 242.48C365.85 241.701 365.512 241.196 365.041 241.204C364.692 241.216 364.569 241.375 364.393 242.002L363.641 244.85C363.332 245.992 362.625 246.575 361.509 246.597C360.311 246.624 358.565 245.919 358.494 242.897C358.435 240.275 359.389 238.864 361.278 238.751L361.33 240.943C360.73 241.089 360.205 241.321 360.241 242.725Z" fill="#FAA61A"/>
<path d="M362.849 255.582C362.737 255.581 362.654 255.585 362.466 255.557L362.541 249.76C361.372 249.792 360.266 250.02 360.241 251.525C360.232 252.339 360.627 252.968 361.306 253.246L361.274 255.452C359.583 254.932 358.501 253.35 358.519 251.416C358.549 248.965 360.262 247.481 363.037 247.524C365.936 247.561 367.708 249.107 367.674 251.578C367.664 253.32 366.673 255.631 362.849 255.582ZM365.968 251.544C365.983 250.548 365.332 249.98 364.017 249.82L363.975 253.258C365.243 253.184 365.955 252.582 365.968 251.544Z" fill="#FAA61A"/>
<path d="M362.843 258.834C361.166 258.755 360.111 259.391 360.059 260.523C360.021 261.382 360.427 261.85 361.531 262.193L361.431 264.334C359.381 264.028 358.154 262.509 358.255 260.418C358.377 257.862 360.115 256.455 362.953 256.592C365.891 256.739 367.514 258.317 367.388 260.892C367.284 263.053 365.955 264.4 363.833 264.456L363.934 262.314C365.085 262.116 365.534 261.705 365.572 260.795C365.667 259.244 364.045 258.89 362.843 258.834Z" fill="#FAA61A"/>
<path d="M365 269.756L365.095 268.511L360.404 268.157C359.641 268.097 359.451 268.232 359.406 268.815C359.394 268.976 359.4 269.099 359.416 269.327L357.849 269.208C357.747 268.8 357.735 268.4 357.774 267.898C357.882 266.431 358.608 265.76 359.963 265.867L365.256 266.269L365.344 265.165L366.829 265.288L366.741 266.392L369.051 266.567L368.882 268.797L366.572 268.622L366.477 269.867L365 269.756Z" fill="#FAA61A"/>
<path d="M361.156 278.351C361.046 278.339 360.966 278.333 360.779 278.296L361.377 272.532C360.209 272.462 359.083 272.584 358.929 274.073C358.849 274.883 359.175 275.55 359.832 275.885L359.599 278.081C357.968 277.41 357.028 275.733 357.227 273.815C357.478 271.377 359.321 270.062 362.078 270.347C364.955 270.645 366.584 272.346 366.327 274.813C366.146 276.541 364.951 278.75 361.156 278.351ZM364.632 274.618C364.738 273.63 364.137 273.01 362.848 272.723L362.494 276.14C363.761 276.178 364.519 275.646 364.632 274.618Z" fill="#FAA61A"/>
<path d="M363.393 283.956L363.557 282.724L358.899 282.102C358.134 282.001 357.946 282.126 357.872 282.703C357.85 282.862 357.845 282.993 357.851 283.219L356.301 283.012C356.23 282.6 356.23 282.192 356.296 281.706C356.486 280.244 357.252 279.622 358.594 279.798L363.858 280.5L364.004 279.408L365.475 279.599L365.329 280.691L367.624 280.996L367.333 283.222L365.038 282.918L364.872 284.159L363.393 283.956Z" fill="#FAA61A"/>
<path d="M355.416 289.81L356.424 289.97C355.582 289.18 355.281 288.335 355.469 287.19C355.769 285.373 357.012 284.51 358.889 284.812L364.824 285.781L364.465 287.994L358.985 287.095C357.957 286.931 357.381 287.316 357.223 288.263C357.049 289.34 357.591 290.152 358.607 290.323L363.94 291.193L363.58 293.405L355.048 292.011L355.416 289.81Z" fill="#FAA61A"/>
<path d="M357.124 301.907C357.016 301.886 356.938 301.87 356.755 301.813L357.975 296.152C356.822 295.953 355.69 295.952 355.378 297.419C355.207 298.221 355.467 298.915 356.079 299.323L355.608 301.482C354.052 300.642 353.313 298.874 353.72 296.987C354.238 294.592 356.212 293.486 358.921 294.067C361.746 294.681 363.178 296.547 362.656 298.962C362.289 300.652 360.857 302.722 357.124 301.907ZM360.979 298.576C361.193 297.609 360.666 296.923 359.415 296.501L358.684 299.862C359.945 300.032 360.766 299.594 360.979 298.576Z" fill="#FAA61A"/>
<path d="M360.857 306.556L359.2 306.175C360.226 306.91 360.686 307.929 360.445 308.932C360.433 308.99 360.418 309.069 360.373 309.193L358.16 308.68C358.278 308.398 358.329 308.245 358.385 308.011C358.681 306.734 358.196 305.944 356.919 305.649L352.445 304.615L352.951 302.432L361.372 304.385L360.857 306.556Z" fill="#FAA61A"/>
<path d="M352.746 312.72C354.243 313.141 354.861 314.182 354.67 315.908L354.581 316.818C354.485 317.553 354.249 318.587 355.059 318.82C355.608 318.98 356.012 318.642 356.239 317.811C356.542 316.75 356.363 316.316 355.535 315.968L356.124 313.883C358.007 314.564 358.628 316.003 357.996 318.253C357.364 320.503 356.174 321.408 354.476 320.926L349.862 319.619C349.429 319.492 349.174 319.543 348.709 319.828L348.448 319.756L349.108 317.419C349.41 317.286 349.582 317.29 350.008 317.405C349.438 316.425 349.273 315.464 349.537 314.548C349.962 313.032 351.25 312.299 352.746 312.72ZM353.099 318.266C353.042 317.989 353.042 317.887 353.091 317.285L353.165 316.505C353.231 315.559 353.02 315.13 352.373 314.95C351.755 314.776 351.25 315.114 351.044 315.837C350.735 316.928 351.265 317.747 352.511 318.098L353.099 318.266Z" fill="#FAA61A"/>
<path d="M352.184 321.887C354.665 322.687 356.071 324.793 355.435 326.756C355.11 327.772 354.493 328.363 353.5 328.634L357.437 329.908L356.748 332.035L345.658 328.438L346.346 326.311L347.18 326.579C346.542 325.79 346.395 324.944 346.729 323.93C347.395 321.871 349.779 321.112 352.184 321.887ZM351.495 324.013C349.99 323.53 348.7 323.915 348.356 324.978C348.011 326.042 348.808 327.108 350.303 327.589C351.874 328.096 353.153 327.719 353.499 326.646C353.843 325.583 353.017 324.51 351.495 324.013Z" fill="#FAA61A"/>
<path d="M344.319 332.188L345.066 330.074L353.209 332.961L352.461 335.075L344.319 332.188ZM353.434 335.412L354.182 333.297L356.067 333.969L355.319 336.084L353.434 335.412Z" fill="#FAA61A"/>
<path d="M344.601 343.257C342.158 342.311 340.892 340.173 341.636 338.231C342.031 337.218 342.723 336.663 343.816 336.503L339.612 334.88L340.416 332.787L351.729 337.163L350.925 339.256L349.732 338.794C350.429 339.646 350.588 340.535 350.193 341.547C349.38 343.628 346.976 344.179 344.601 343.257ZM346.78 337.645C345.275 337.059 343.977 337.382 343.574 338.433C343.174 339.465 343.918 340.592 345.386 341.16C346.92 341.751 348.224 341.45 348.639 340.391C349.03 339.347 348.284 338.23 346.78 337.645Z" fill="#FAA61A"/>
<path d="M339.283 345.073L340.145 343.001L348.117 346.333L347.256 348.405L339.283 345.073ZM348.197 348.797L349.059 346.725L350.903 347.5L350.041 349.572L348.197 348.797Z" fill="#FAA61A"/>
<path d="M338.426 350.5C338.003 351.445 338.037 352.145 338.514 352.363C338.831 352.508 339.076 352.404 339.461 351.96L341.316 349.862C341.669 349.474 342.48 348.32 344.034 349.017C345.652 349.748 346.101 351.438 345.202 353.441C344.25 355.556 342.666 356.392 340.985 355.67L341.868 353.694C342.592 354.001 343.157 353.676 343.595 352.703C343.92 351.992 343.836 351.394 343.396 351.195C343.078 351.05 342.896 351.146 342.463 351.631L340.556 353.881C339.786 354.778 338.896 354.998 337.876 354.54C336.781 354.047 335.509 352.651 336.753 349.891C337.832 347.496 339.308 346.638 341.052 347.352L340.153 349.355C339.576 349.23 338.998 349.217 338.426 350.5Z" fill="#FAA61A"/>
<path d="M337.908 358.115C336.403 357.377 335.177 357.541 334.68 358.553C334.302 359.324 334.489 359.922 335.368 360.678L334.424 362.601C332.664 361.506 332.143 359.618 333.077 357.744C334.207 355.451 336.356 354.849 338.918 356.114C341.555 357.415 342.411 359.513 341.277 361.825C340.32 363.766 338.569 364.467 336.595 363.676L337.539 361.754C338.667 362.029 339.248 361.829 339.655 361.013C340.321 359.616 338.985 358.646 337.908 358.115Z" fill="#FAA61A"/>
<path d="M330.057 364.402L331.105 362.419L338.745 366.45L337.697 368.433L330.057 364.402ZM338.603 368.899L339.651 366.916L341.423 367.85L340.375 369.833L338.603 368.899Z" fill="#FAA61A"/>
<path d="M335.523 372.435L334.432 371.82C334.95 372.851 334.945 373.748 334.365 374.764C333.464 376.369 331.992 376.748 330.332 375.816L325.292 372.966L326.395 371.014L331.032 373.631C331.921 374.134 332.615 373.977 333.087 373.143C333.622 372.199 333.396 371.237 332.497 370.731L327.989 368.181L329.092 366.229L336.616 370.481L335.523 372.435Z" fill="#FAA61A"/>
<path d="M327.754 385.529L320.153 380.843C318.428 379.776 318.213 377.887 319.585 375.662C320.789 373.71 322.383 372.927 323.678 373.695L322.458 375.674C321.803 375.483 321.214 375.773 320.766 376.489C320.178 377.443 320.377 378.492 321.268 379.037L322.266 379.654C321.895 378.448 321.957 377.777 322.486 376.914C323.601 375.107 325.866 374.844 328.153 376.259C330.423 377.659 331.329 380.022 330.248 381.764C329.723 382.608 328.962 382.997 327.73 383.037L328.857 383.73L327.754 385.529ZM327.007 378.172C325.673 377.345 324.375 377.413 323.819 378.311C323.203 379.3 323.687 380.559 325.021 381.385C326.383 382.228 327.81 382.125 328.398 381.171C328.978 380.257 328.396 379.03 327.007 378.172Z" fill="#FAA61A"/>
<path d="M315.942 394.708C315.852 394.649 315.781 394.594 315.632 394.473L318.935 389.717C317.948 389.092 316.903 388.659 316.047 389.885C315.576 390.556 315.551 391.296 315.96 391.907L314.702 393.716C313.589 392.342 313.584 390.424 314.685 388.839C316.084 386.834 318.329 386.567 320.605 388.143C322.977 389.798 323.585 392.071 322.17 394.103C321.191 395.54 319.075 396.892 315.942 394.708ZM320.787 393.114C321.357 392.3 321.135 391.47 320.136 390.598L318.167 393.418C319.272 394.066 320.199 393.966 320.787 393.114Z" fill="#FAA61A"/>
<path d="M310.522 395.3L311.84 393.493L321.241 400.403L319.913 402.208L310.522 395.3Z" fill="#FAA61A"/>
<path d="M308.016 398.614L309.37 396.834L316.239 402.068L314.885 403.848L308.016 398.614ZM315.7 404.469L317.053 402.689L318.647 403.904L317.293 405.684L315.7 404.469Z" fill="#FAA61A"/>
<path d="M310.083 407.275L310.859 406.298L307.168 403.38C306.569 402.904 306.334 402.908 305.965 403.375C305.869 403.499 305.797 403.607 305.685 403.809L304.451 402.839C304.6 402.45 304.811 402.105 305.113 401.717C306.026 400.563 307.005 400.411 308.07 401.256L312.236 404.553L312.918 403.69L314.089 404.617L313.408 405.48L315.23 406.924L313.839 408.686L312.016 407.242L311.24 408.219L310.083 407.275Z" fill="#FAA61A"/>
<path d="M303.942 407.438L302.253 406.041C301.289 405.247 300.349 404.183 301.525 402.327L302.217 402.893C301.763 403.741 301.92 404.435 302.762 405.123L302.797 405.15L303.669 404.1L305.473 405.592L303.942 407.438Z" fill="#FAA61A"/>
<path d="M296.783 414.25C296.089 415.019 295.903 415.696 296.302 416.051C296.561 416.286 296.82 416.266 297.329 415.96L299.735 414.532C300.184 414.275 301.322 413.421 302.584 414.56C303.907 415.751 303.814 417.497 302.346 419.132C300.79 420.851 299.025 421.162 297.654 419.96L299.106 418.353C299.696 418.869 300.336 418.731 301.055 417.936C301.578 417.357 301.687 416.757 301.332 416.442C301.073 416.206 300.873 416.238 300.307 416.574L297.803 418.135C296.794 418.749 295.878 418.689 295.05 417.932C294.159 417.133 293.381 415.408 295.407 413.17C297.161 411.226 298.836 410.856 300.276 412.071L298.81 413.696C298.269 413.394 297.725 413.204 296.783 414.25Z" fill="#FAA61A"/>
<path d="M289.842 425.388C289.766 425.312 289.705 425.259 289.581 425.112L293.612 420.95C292.737 420.174 291.786 419.576 290.735 420.652C290.169 421.242 290.024 421.968 290.329 422.64L288.79 424.22C287.912 422.689 288.219 420.793 289.558 419.397C291.265 417.637 293.528 417.741 295.51 419.666C297.586 421.68 297.823 424.022 296.093 425.798C294.893 427.058 292.593 428.058 289.842 425.388ZM294.884 424.599C295.575 423.89 295.493 423.027 294.654 422.014L292.265 424.485C293.237 425.29 294.164 425.342 294.884 424.599Z" fill="#FAA61A"/>
<path d="M289.262 426.252C291.07 428.131 291.301 430.655 289.813 432.082C289.043 432.826 288.221 433.06 287.219 432.819L290.088 435.818L288.475 437.362L280.407 428.933L282.02 427.388L282.629 428.019C282.45 427.025 282.714 426.211 283.484 425.467C285.058 423.966 287.515 424.425 289.262 426.252ZM287.649 427.796C286.552 426.65 285.238 426.388 284.43 427.165C283.623 427.942 283.82 429.256 284.899 430.389C286.038 431.584 287.35 431.856 288.169 431.071C288.977 430.294 288.754 428.954 287.649 427.796Z" fill="#FAA61A"/>
<path d="M278.83 436.031C280.525 438.011 280.623 440.539 279.049 441.887C278.238 442.582 277.404 442.773 276.414 442.473L279.109 445.631L277.402 447.085L269.82 438.212L271.527 436.758L272.098 437.422C271.972 436.418 272.283 435.624 273.106 434.921C274.753 433.516 277.183 434.112 278.83 436.031ZM277.122 437.486C276.098 436.282 274.79 435.94 273.941 436.668C273.092 437.396 273.215 438.726 274.231 439.917C275.297 441.17 276.594 441.52 277.454 440.784C278.303 440.056 278.165 438.703 277.122 437.486Z" fill="#FAA61A"/>
<path d="M266.738 440.678L268.477 439.27L273.908 445.991L272.169 447.399L266.738 440.678ZM272.817 448.191L274.556 446.783L275.816 448.34L274.077 449.747L272.817 448.191Z" fill="#FAA61A"/>
<path d="M267.228 443.182C268.176 444.411 268.048 445.619 266.866 446.892L266.253 447.565C265.737 448.105 264.93 448.78 265.448 449.455C265.795 449.911 266.313 449.872 266.999 449.346C267.877 448.674 267.989 448.217 267.531 447.443L269.24 446.132C270.344 447.81 269.98 449.328 268.136 450.755C266.281 452.18 264.789 452.199 263.711 450.801L260.788 446.997C260.514 446.636 260.282 446.518 259.741 446.472L259.58 446.256L261.507 444.774C261.828 444.848 261.962 444.946 262.237 445.307C262.359 444.179 262.806 443.32 263.566 442.727C264.807 441.771 266.28 441.953 267.228 443.182ZM264.199 447.839C264.323 447.579 264.38 447.498 264.785 447.049L265.309 446.47C265.932 445.748 266.014 445.285 265.6 444.754C265.211 444.248 264.597 444.207 264.005 444.67C263.103 445.357 263.041 446.334 263.836 447.359L264.199 447.839Z" fill="#FAA61A"/>
<path d="M261.779 455.331L261.168 454.455C261.063 455.596 260.732 456.234 259.924 456.807C259.048 457.417 258.068 457.528 257.265 457.103C257.227 458.217 256.821 458.972 255.922 459.598C254.5 460.59 253.098 460.361 252.14 458.977L248.642 453.967L250.479 452.681L253.769 457.405C254.165 457.974 254.791 458.058 255.406 457.63C256.189 457.082 256.298 456.227 255.695 455.362L252.729 451.111L254.566 449.825L257.856 454.549C258.252 455.117 258.878 455.201 259.493 454.773C260.285 454.228 260.385 453.371 259.782 452.506L256.816 448.254L258.651 446.978L263.592 454.061L261.779 455.331Z" fill="#FAA61A"/>
<path d="M245.834 465.908L245.19 464.842C245.134 465.993 244.693 466.772 243.695 467.379C242.119 468.329 240.656 467.946 239.676 466.313L236.678 461.351L238.591 460.193L241.344 464.748C241.872 465.629 242.557 465.826 243.38 465.328C244.307 464.768 244.577 463.822 244.049 462.942L241.365 458.502L243.278 457.344L247.749 464.74L245.834 465.908Z" fill="#FAA61A"/>
<path d="M229.994 469.818C228.653 467.389 229.257 465.072 231.551 463.796C233.876 462.516 236.128 463.24 237.506 465.737C238.879 468.214 238.306 470.526 235.993 471.798C233.63 473.112 231.412 472.374 229.994 469.818ZM235.546 466.825C234.753 465.382 233.493 464.795 232.427 465.388C231.374 465.963 231.189 467.354 231.968 468.763C232.795 470.244 234.025 470.825 235.101 470.234C236.168 469.641 236.339 468.268 235.546 466.825Z" fill="#FAA61A"/>
<path d="M228.888 475.42L228.324 474.308C228.188 475.453 227.684 476.189 226.641 476.716C224.998 477.54 223.566 477.051 222.712 475.351L220.102 470.182L222.098 469.172L224.494 473.932C224.953 474.85 225.616 475.104 226.479 474.664C227.453 474.175 227.79 473.253 227.331 472.336L225 467.711L226.995 466.702L230.882 474.42L228.888 475.42Z" fill="#FAA61A"/>
<path d="M213.654 473.169L214.08 474.1C214.266 472.964 214.797 472.244 215.863 471.753C217.536 470.985 218.944 471.541 219.742 473.271L222.24 478.744L220.199 479.673L217.891 474.625C217.457 473.682 216.808 473.41 215.933 473.807C214.945 474.262 214.571 475.167 214.997 476.098L217.25 481.013L215.209 481.942L211.615 474.088L213.654 473.169Z" fill="#FAA61A"/>
<path d="M211.023 483.759L210.621 482.761C210.261 483.852 209.794 484.401 208.875 484.769C207.877 485.171 206.9 485.058 206.215 484.453C205.928 485.537 205.351 486.177 204.344 486.578C202.738 487.216 201.418 486.678 200.799 485.127L198.524 479.453L200.606 478.624L202.753 483.967C203.013 484.61 203.601 484.829 204.299 484.55C205.187 484.187 205.491 483.38 205.094 482.404L203.167 477.595L205.249 476.765L207.396 482.108C207.655 482.751 208.244 482.971 208.942 482.692C209.828 482.338 210.134 481.522 209.737 480.546L207.81 475.736L209.892 474.907L213.108 482.92L211.023 483.759Z" fill="#FAA61A"/>
<path d="M197.734 488.89L197.396 487.875C196.979 488.944 196.477 489.466 195.536 489.788C194.519 490.136 193.554 489.964 192.896 489.323C192.542 490.385 191.94 490.999 190.913 491.345C189.274 491.895 187.989 491.282 187.448 489.696L185.493 483.902L187.615 483.183L189.454 488.637C189.67 489.292 190.251 489.551 190.963 489.305C191.87 488.996 192.211 488.208 191.881 487.204L190.218 482.294L192.34 481.575L194.179 487.03C194.395 487.685 194.976 487.943 195.688 487.698C196.596 487.389 196.936 486.6 196.606 485.597L194.944 480.687L197.065 479.968L199.828 488.156L197.734 488.89Z" fill="#FAA61A"/>
<path d="M181.812 484.565L187.397 492.306L185.029 492.986L181.458 487.472L181.48 494.012L179.262 494.651L179.835 483.845C179.868 483.219 179.716 481.884 182.065 481.2C182.324 481.129 182.516 481.086 182.851 481.04L183.315 482.652C183.019 482.654 182.892 482.68 182.719 482.727C181.962 482.943 181.555 483.708 181.785 484.499L181.812 484.565Z" fill="#FAA61A"/>
<path d="M171.203 496.665L170.926 495.447C170.516 496.528 169.848 497.119 168.705 497.381C166.911 497.788 165.637 496.963 165.213 495.104L163.922 489.453L166.103 488.949L167.291 494.142C167.521 495.136 168.102 495.547 169.041 495.337C170.1 495.089 170.658 494.283 170.43 493.279L169.275 488.225L171.456 487.722L173.376 496.15L171.203 496.665Z" fill="#FAA61A"/>
<path d="M160.034 490.238L162.232 489.799L163.928 498.274L161.73 498.713L160.034 490.238ZM161.929 499.711L164.127 499.272L164.52 501.237L162.322 501.676L161.929 499.711Z" fill="#FAA61A"/>
<path d="M150.661 496.181C150.224 493.616 151.439 491.411 153.466 491.06C154.543 490.877 155.345 491.149 156.024 491.886L155.881 491.022L158.087 490.645L160.048 502.14L157.842 502.517L157.147 498.432C156.755 499.374 156.069 499.9 155.014 500.077C152.998 500.419 151.12 498.842 150.661 496.181ZM156.599 495.192C156.322 493.567 155.399 492.618 154.279 492.813C153.191 493.004 152.61 494.234 152.871 495.785C153.139 497.358 154.097 498.334 155.185 498.143C156.293 497.956 156.861 496.744 156.599 495.192Z" fill="#FAA61A"/>
<path d="M145.626 499.552C146.63 499.425 147.247 498.631 147.117 497.646L146.439 492.505L148.658 492.213L150.176 503.783L147.957 504.074L147.404 499.835C146.907 500.847 146.174 501.405 145.076 501.543C143.85 501.706 142.205 501.317 141.893 498.94L141.14 493.202L143.36 492.911L144.05 498.147C144.172 499.068 144.588 499.692 145.626 499.552Z" fill="#FAA61A"/>
<path d="M127.698 498.385C127.69 498.271 127.684 498.199 127.682 498.005L133.457 497.575C133.321 496.416 132.997 495.332 131.506 495.443C130.689 495.504 130.1 495.948 129.877 496.658L127.673 496.82C128.039 495.088 129.524 493.875 131.45 493.729C133.894 493.543 135.517 495.12 135.721 497.883C135.94 500.772 134.553 502.668 132.078 502.858C130.36 502.984 127.979 502.193 127.698 498.385ZM131.991 501.147C132.985 501.07 133.49 500.376 133.539 499.06L130.113 499.315C130.292 500.564 130.957 501.217 131.991 501.147Z" fill="#FAA61A"/>
<path d="M120.647 494.675L120.687 495.703C121.29 494.722 122.055 494.263 123.227 494.211C125.067 494.139 126.162 495.193 126.232 497.094L126.452 503.102L124.212 503.186L124.002 497.638C123.964 496.601 123.462 496.103 122.507 496.137C121.419 496.175 120.729 496.874 120.759 497.899L120.957 503.302L118.717 503.386L118.397 494.757L120.647 494.675Z" fill="#FAA61A"/>
<path d="M114.395 494.786L116.632 494.763L116.717 503.396L114.479 503.419L114.395 494.786ZM114.499 504.442L116.737 504.419L116.756 506.422L114.518 506.445L114.499 504.442Z" fill="#FAA61A"/>
<path d="M109.046 496.146C108.008 496.133 107.377 496.436 107.363 496.963C107.354 497.318 107.542 497.499 108.107 497.683L110.767 498.559C111.263 498.73 112.652 499.027 112.62 500.723C112.592 502.502 111.214 503.584 109.019 503.544C106.701 503.51 105.306 502.376 105.303 500.55L107.468 500.584C107.474 501.37 107.988 501.758 109.065 501.779C109.848 501.792 110.369 501.478 110.373 500.999C110.382 500.644 110.223 500.521 109.601 500.315L106.787 499.449C105.655 499.09 105.107 498.359 105.126 497.241C105.151 496.043 105.922 494.321 108.95 494.374C111.572 494.417 112.95 495.436 112.982 497.318L110.788 497.279C110.67 496.694 110.45 496.161 109.046 496.146Z" fill="#FAA61A"/>
<path d="M101.321 503.182L101.391 502.116C100.603 502.948 99.9428 503.244 98.9563 503.18C97.8894 503.11 97.0535 502.597 96.6902 501.76C95.9592 502.613 95.1691 502.945 94.0904 502.883C92.3685 502.775 91.4048 501.726 91.5056 500.043L91.8859 493.94L94.1217 494.08L93.7608 499.83C93.7162 500.515 94.1539 500.979 94.9089 501.028C95.866 501.086 96.4853 500.485 96.5435 499.426L96.8616 494.248L99.0974 494.388L98.7365 500.139C98.6919 500.823 99.1295 501.288 99.8846 501.336C100.842 501.394 101.461 500.794 101.519 499.735L101.837 494.557L104.073 494.697L103.538 503.318L101.321 503.182Z" fill="#FAA61A"/>
<path d="M81.5369 496.955C81.841 494.202 83.6697 492.649 86.2841 492.936C88.928 493.228 90.3452 495.122 90.0255 497.954C89.7195 500.768 87.9202 502.327 85.296 502.038C82.6012 501.746 81.2212 499.87 81.5369 496.955ZM87.7994 497.714C87.9827 496.078 87.2954 494.871 86.0775 494.74C84.8811 494.604 83.9326 495.628 83.7552 497.234C83.572 498.921 84.2435 500.105 85.4713 500.238C86.6873 500.378 87.6162 499.35 87.7994 497.714Z" fill="#FAA61A"/>
<path d="M80.4445 496.86C80.0638 499.435 78.2195 501.168 76.1797 500.864C75.1206 500.704 74.4358 500.2 74.0115 499.259L73.3985 503.358L71.1802 503.028L72.8982 491.492L75.1165 491.822L74.9837 492.692C75.6637 491.941 76.4657 491.652 77.5248 491.812C79.6725 492.138 80.8095 494.363 80.4445 496.86ZM78.2262 496.53C78.4565 494.965 77.8615 493.755 76.7513 493.595C75.6432 493.425 74.726 494.395 74.4898 495.938C74.2457 497.572 74.8231 498.768 75.9509 498.942C77.0591 499.112 77.9919 498.115 78.2262 496.53Z" fill="#FAA61A"/>
<path d="M61.6602 496.512L62.89 496.737L63.7302 492.112C63.8709 491.355 63.757 491.159 63.1764 491.053C63.0195 491.022 62.8881 491.016 62.6645 491.012L62.942 489.467C63.3597 489.417 63.7637 489.437 64.2462 489.523C65.6917 489.79 66.2787 490.58 66.0325 491.918L65.0829 497.143L66.1656 497.339L65.894 498.804L64.8113 498.608L64.3971 500.891L62.1924 500.493L62.6067 498.21L61.3769 497.985L61.6602 496.512Z" fill="#FAA61A"/>
<path d="M59.4213 488.867L61.6102 489.344L59.7744 497.788L57.5855 497.311L59.4213 488.867ZM57.3763 498.309L59.5653 498.786L59.1449 500.742L56.956 500.265L57.3763 498.309Z" fill="#FAA61A"/>
<path d="M53.1525 496.275L53.4557 495.06C52.607 495.84 51.7364 496.064 50.6086 495.788C48.8197 495.35 48.0618 494.036 48.5214 492.191L49.9159 486.575L52.0932 487.111L50.818 492.281C50.5696 493.272 50.9133 493.901 51.845 494.138C52.9042 494.4 53.7648 493.919 54.0034 492.926L55.2512 487.893L57.4284 488.429L55.3494 496.814L53.1525 496.275Z" fill="#FAA61A"/>
<path d="M45.2661 489.594C45.7298 487.984 45.3525 486.807 44.252 486.496C43.4223 486.26 42.8753 486.548 42.2877 487.553L40.2241 486.958C40.9955 485.032 42.7443 484.187 44.7608 484.762C47.2205 485.467 48.1966 487.476 47.4062 490.215C46.5981 493.041 44.6829 494.26 42.2035 493.552C40.1301 492.955 39.123 491.358 39.5471 489.28L41.6107 489.875C41.5429 491.034 41.8433 491.573 42.722 491.82C44.2285 492.243 44.9453 490.744 45.2661 489.594Z" fill="#FAA61A"/>
<path d="M37.6621 482.981L39.8022 483.652L37.2112 491.894L35.0711 491.223L37.6621 482.981ZM34.7639 492.202L36.904 492.873L36.2993 494.782L34.1592 494.111L34.7639 492.202Z" fill="#FAA61A"/>
<path d="M35.0582 486.581C34.2107 489.043 32.072 490.411 30.1261 489.738C29.1158 489.384 28.5349 488.768 28.2871 487.761L26.9346 491.682L24.8161 490.954L28.625 479.925L30.7435 480.654L30.4558 481.483C31.2614 480.869 32.1046 480.731 33.1149 481.085C35.1746 481.802 35.8901 484.198 35.0582 486.581ZM32.9396 485.853C33.4525 484.354 33.0887 483.058 32.0295 482.694C30.9702 482.33 29.8882 483.104 29.3773 484.593C28.843 486.148 29.1871 487.44 30.266 487.808C31.3252 488.172 32.4229 487.371 32.9396 485.853Z" fill="#FAA61A"/>
<path d="M21.8984 477.351L21.5245 478.306C22.4712 477.649 23.3517 477.529 24.4405 477.949C26.153 478.617 26.7423 480.009 26.0512 481.788L23.8723 487.401L21.7811 486.586L23.7917 481.409C24.1676 480.444 23.9103 479.791 23.0118 479.439C21.9996 479.043 21.08 479.411 20.7061 480.366L18.7425 485.41L16.6513 484.595L19.7857 476.543L21.8984 477.351Z" fill="#FAA61A"/>
<path d="M12.4414 482.798L12.9447 481.654C11.9743 482.276 11.0801 482.363 10.0109 481.895C8.32188 481.161 7.78944 479.739 8.55507 477.995L10.8676 472.685L12.9216 473.584L10.7951 478.472C10.3838 479.41 10.6157 480.089 11.4985 480.468C12.4931 480.901 13.4244 480.577 13.8356 479.639L15.9054 474.882L17.9593 475.781L14.5032 483.708L12.4414 482.798Z" fill="#FAA61A"/>
<path d="M2.82559 476.609L3.95362 477.14L5.96484 472.881C6.28796 472.18 6.23877 471.966 5.69732 471.716C5.54822 471.645 5.43251 471.612 5.21281 471.538L5.88254 470.121C6.3003 470.174 6.68283 470.301 7.13012 470.513C8.46218 471.145 8.83148 472.055 8.24985 473.285L5.98602 478.095L6.98262 478.569L6.34813 479.911L5.35153 479.437L4.36257 481.534L2.33995 480.581L3.32891 478.483L2.20089 477.953L2.82559 476.609Z" fill="#FAA61A"/>
</g>
<defs>
<clipPath id="clip0">
<rect width="498.56" height="320.04" fill="white" transform="translate(411.311 62.5516) rotate(101.271)"/>
</clipPath>
</defs>
</svg>
