<svg width="29" height="24" viewBox="0 0 29 24" fill="none" xmlns="http://www.w3.org/2000/svg">
<path d="M0 15.4286H6.82353V8.57143H0V15.4286ZM0 24H6.82353V17.1429H0V24ZM0 6.85714H6.82353V0H0V6.85714ZM8.52941 15.4286H29V8.57143H8.52941V15.4286ZM8.52941 24H29V17.1429H8.52941V24ZM8.52941 0V6.85714H29V0H8.52941Z" fill="#545859" fill-opacity="0.8"/>
</svg>
