<svg width="20" height="18" viewBox="0 0 20 18" xmlns="http://www.w3.org/2000/svg">
<path d="M17 5H3C1.34 5 0 6.34 0 8V14H4V18H16V14H20V8C20 6.34 18.66 5 17 5ZM14 16H6V11H14V16ZM17 9C16.45 9 16 8.55 16 8C16 7.45 16.45 7 17 7C17.55 7 18 7.45 18 8C18 8.55 17.55 9 17 9ZM16 0H4V4H16V0Z" fill-opacity="0.8"/>
</svg>
