<svg width="15" height="14" viewBox="0 0 15 14" fill="none" xmlns="http://www.w3.org/2000/svg">
<path d="M13.0623 11.7447H2.23306V1.63738H7.64767V0.193481H2.23306C1.37446 0.193481 0.686028 0.843235 0.686028 1.63738V11.7447C0.686028 12.5388 1.37446 13.1885 2.23306 13.1885H13.0623C13.9132 13.1885 14.6093 12.5388 14.6093 11.7447V6.69102H13.0623V11.7447ZM9.1947 0.193481V1.63738H11.9716L4.36796 8.73413L5.45862 9.75208L13.0623 2.65532V5.24712H14.6093V0.193481H9.1947Z" fill="white"/>
</svg>
