<svg width="103" height="38" viewBox="0 0 103 38" xmlns="http://www.w3.org/2000/svg">
<path d="M0 0H9.68384V14.2676L21.9209 0H33.9476L20.2028 14.631L35.6689 37.1766H23.639L13.6428 21.5575L9.68384 25.7205V37.1735H0V0Z"/>
<path d="M40.5587 25.8257C40.7148 29.5233 42.8505 31.9714 46.5991 31.9714C48.7348 31.9714 50.8162 30.9832 51.6514 29.0037H59.9295C58.3166 35.2514 52.5344 37.9576 46.4971 37.9576C37.6962 37.9576 31.71 32.6471 31.71 23.588C31.71 15.3099 38.3242 9.37465 46.2899 9.37465C55.9737 9.37465 60.8157 16.6646 60.4013 25.8289H40.5587V25.8257ZM51.5462 20.8786C51.39 17.86 49.2543 15.3577 46.2867 15.3577C43.1629 15.3577 41.0782 17.5954 40.5587 20.8786H51.5462Z"/>
<path d="M71.2645 10.1524V14.8892H71.3697C72.6703 11.4529 75.6921 9.62966 79.4917 9.62966C80.1674 9.62966 80.8974 9.68066 81.5732 9.83685V17.9078C80.4288 17.5954 79.3865 17.3882 78.1879 17.3882C73.8146 17.3882 71.5227 20.41 71.5227 23.792V37.1735H62.6708V10.1524H71.2645Z"/>
<path d="M84.0977 10.1524H92.6882V14.8892H92.7934C94.0939 11.4529 97.1157 9.62966 100.915 9.62966C101.591 9.62966 102.321 9.68066 103 9.83685V17.9078C101.856 17.5954 100.813 17.3882 99.6148 17.3882C95.2414 17.3882 92.9496 20.41 92.9496 23.792V37.1735H84.0977V10.1524Z"/>
</svg>
