<svg width="1000" height="383" viewBox="0 0 1000 383" fill="none" xmlns="http://www.w3.org/2000/svg">
<path d="M0.657742 0C0.657742 0 -5.27615 268.243 231.523 186.666C281.925 169.304 419.796 98.5372 445.437 201.932C459.854 260.041 457.099 433.911 659.35 328.226C705.547 304.091 787.552 230.383 870.333 324.062C892.237 348.863 915.753 414.869 1000 364.602V0H0.657742Z" fill="#006A95" fill-opacity="0.1"/>
</svg>
